1,0.00001,7.55605554831207
1,0.02001,0.5375842186538875
1,0.040010000000000004,0.14228777719850336
1,0.06001,0.06393623850079441
1,0.08001,0.03610141735112793
1,0.10001,0.02314389458677043
1,0.12000999999999999,0.01608537928863303
1,0.14001000000000002,0.011822491214821205
1,0.16001,0.00905294564734333
1,0.18001,0.007152891431044771
1,0.20001000000000002,0.005793164870399382
1,0.22001,0.004786786929114538
1,0.24001,0.004021168322937044
1,0.26001,0.0034251829577787297
1,0.28001000000000004,0.0029521579295181365
1,0.30001,0.0025705066594077053
1,0.32001,0.002258154269303358
1,0.34001000000000003,0.001999302180068109
1,0.36001,0.0017823918131175023
1,0.38001,0.001598810457458209
1,0.40001000000000003,0.0014420705686011609
1,0.42001,0.0013071895002886305
1,0.44001,0.0011902888714017176
1,0.46001000000000003,0.0010883135847012154
1,0.48001,0.0009988307909821069
1,0.50001,0.0009198838431504871
1,0.52001,0.0008498847104368854
1,0.54001,0.0007875337054040483
1,0.56001,0.0007317588814620991
1,0.5800099999999999,0.0006816697813555599
1,0.6000099999999999,0.0006365217816258406
1,0.62001,0.000595688347873536
1,0.64001,0.0005586392572469255
1,0.66001,0.000524923365643027
1,0.68001,0.0004941548673894638
1,0.70001,0.0004660022614714555
1,0.7200099999999999,0.00044017943185339995
1,0.74001,0.0004164383914148544
1,0.76001,0.00039456334418339956
1,0.78001,0.00037436579915374723
1,0.80001,0.0003556805281735113
1,0.82001,0.0003383622053598559
1,0.8400099999999999,0.00032228259990819
1,0.8600099999999999,0.0003073282206873552
1,0.88001,0.0002933983316148296
1,0.90001,0.0002804032729406725
1,0.92001,0.0002682630364316551
1,0.94001,0.00025690605302891687
1,0.9600099999999999,0.0002462681615868778
1,0.9800099999999999,0.00023629174299177508
21,0.00001,7.556080856686328
21,0.02001,7.337935146144624
21,0.040010000000000004,6.755199339054694
21,0.06001,5.969323836991527
21,0.08001,5.137178226541721
21,0.10001,4.35941805454924
21,0.12000999999999999,3.6806918488940714
21,0.14001000000000002,3.1098574521541495
21,0.16001,2.638448092919107
21,0.18001,2.2519298218685315
21,0.20001000000000002,1.9352191564918393
21,0.22001,1.6748923641088231
21,0.24001,1.459783555028088
21,0.26001,1.2809042897448688
21,0.28001000000000004,1.131130679434379
21,0.30001,1.004850545813207
21,0.32001,0.8976456534094384
21,0.34001000000000003,0.8060289893731171
21,0.36001,0.727236044452154
21,0.38001,0.659063529597032
21,0.40001000000000003,0.5997444323252779
21,0.42001,0.547852778698393
21,0.44001,0.502230398316595
21,0.46001000000000003,0.4619305479029881
21,0.48001,0.42617468593416735
21,0.50001,0.39431859652447165
21,0.52001,0.36582612776151013
21,0.54001,0.3402486420155703
21,0.56001,0.3172087080352492
21,0.5800099999999999,0.29638716615834415
21,0.6000099999999999,0.2775128261566344
21,0.62001,0.2603542054636709
21,0.64001,0.24471283420619336
21,0.66001,0.23041783198946797
21,0.68001,0.21732148091862094
21,0.70001,0.20529556181207348
21,0.7200099999999999,0.19422845263030747
21,0.74001,0.1840226174366875
21,0.76001,0.17459252859443047
21,0.78001,0.16586295120334127
21,0.80001,0.15776750435331519
21,0.82001,0.1502474498027585
21,0.8400099999999999,0.14325066829971056
21,0.8600099999999999,0.13673079137357605
21,0.88001,0.13064646248023737
21,0.90001,0.12496070624678149
21,0.92001,0.11964038852763133
21,0.94001,0.1146557533696325
21,0.9600099999999999,0.1099800264350052
21,0.9800099999999999,0.1055890831100708
41,0.00001,7.556080899243387
41,0.02001,7.5020359216068
41,0.040010000000000004,7.344677793677476
41,0.06001,7.096999645302108
41,0.08001,6.77771184639682
41,0.10001,6.4079644387891435
41,0.12000999999999999,6.008365279510948
41,0.14001000000000002,5.596898915927711
41,0.16001,5.187886734314708
41,0.18001,4.791804707947718
41,0.20001000000000002,4.415648885571213
41,0.22001,4.063560412441461
41,0.24001,3.737506166525109
41,0.26001,3.4378989101129895
41,0.28001000000000004,3.1641083481768417
41,0.30001,2.914852066809109
41,0.32001,2.688481331444841
41,0.34001000000000003,2.4831796513253668
41,0.36001,2.2970951781181546
41,0.38001,2.128424507575237
41,0.40001000000000003,1.9754623080716742
41,0.42001,1.8366280969724385
41,0.44001,1.7104769992932345
41,0.46001000000000003,1.5957004527969265
41,0.48001,1.491121685679453
41,0.50001,1.3956875564740916
41,0.52001,1.308458501228256
41,0.54001,1.2285979470132373
41,0.56001,1.1553620075104256
41,0.5800099999999999,1.088089466868621
41,0.6000099999999999,1.0261926969994677
41,0.62001,0.9691491800123251
41,0.64001,0.9164940420348218
41,0.66001,0.8678133390019223
41,0.68001,0.8227379229233732
41,0.70001,0.7809382949714235
41,0.7200099999999999,0.7421199658145587
41,0.74001,0.7060193730052746
41,0.76001,0.67240020098105
41,0.78001,0.6410502944904733
41,0.80001,0.6117789021958113
41,0.82001,0.5844142492175138
41,0.8400099999999999,0.5588013986453624
41,0.8600099999999999,0.5348003926910314
41,0.88001,0.5122846379255654
41,0.90001,0.4911394336549432
41,0.92001,0.47126060322999075
41,0.94001,0.45255368205180707
41,0.9600099999999999,0.43493260908026604
41,0.9800099999999999,0.41831906463666807
61,0.00001,7.556080907553241
61,0.02001,7.5349674976994265
61,0.040010000000000004,7.472390799269259
61,0.06001,7.370449218650027
61,0.08001,7.232440754548073
61,0.10001,7.062599913126269
61,0.12000999999999999,6.865786470659838
61,0.14001000000000002,6.647166022209254
61,0.16001,6.411917118878686
61,0.18001,6.164989426557842
61,0.20001000000000002,5.910924129764563
61,0.22001,5.65373849496724
61,0.24001,5.396868231571384
61,0.26001,5.1431569067765
61,0.28001000000000004,4.894879994884746
61,0.30001,4.653791984371815
61,0.32001,4.421186529246118
61,0.34001000000000003,4.197961506387858
61,0.36001,3.984684355118824
61,0.38001,3.781652381051975
61,0.40001000000000003,3.588948159107596
61,0.42001,3.406487373702957
61,0.44001,3.2340591570465445
61,0.46001000000000003,3.0713599664666282
61,0.48001,2.9180212493178654
61,0.50001,2.7736315637330033
61,0.52001,2.6377540162978628
61,0.54001,2.509939776695031
61,0.56001,2.3897384562870365
61,0.5800099999999999,2.276705646562193
61,0.6000099999999999,2.1704086834859067
61,0.62001,2.0704304097008044
61,0.64001,1.9763716806716514
61,0.66001,1.8878533917028002
61,0.68001,1.8045169349564005
61,0.70001,1.726024436751098
61,0.7200099999999999,1.6520586389475236
61,0.74001,1.5823224409254546
61,0.76001,1.5165382013937792
61,0.78001,1.4544468994829285
61,0.80001,1.395807220419628
61,0.82001,1.340394495149659
61,0.8400099999999999,1.2879997392767755
61,0.8600099999999999,1.2384287109793448
61,0.88001,1.191500866793158
61,0.90001,1.1470484646696204
61,0.92001,1.1049156854021083
61,0.94001,1.064957802220553
61,0.9600099999999999,1.027040372677494
61,0.9800099999999999,0.9910385750283592
81,0.00001,7.556080910531485
81,0.02001,7.546842920444603
81,0.040010000000000004,7.519286035053205
81,0.06001,7.473820076028441
81,0.08001,7.41111037092865
81,0.10001,7.332053214114345
81,0.12000999999999999,7.237743965606108
81,0.14001000000000002,7.129439884538609
81,0.16001,7.00851998002393
81,0.18001,6.876444181974821
81,0.20001000000000002,6.734713622071676
81,0.22001,6.584834088451475
81,0.24001,6.42828374281991
81,0.26001,6.266485844175378
81,0.28001000000000004,6.100786875534345
81,0.30001,5.932440071838329
81,0.32001,5.762594206937805
81,0.34001000000000003,5.592286932224854
81,0.36001,5.422442211401244
81,0.38001,5.253871071970312
81,0.40001000000000003,5.087274964209749
81,0.42001,4.923251229483058
81,0.44001,4.762299852974277
81,0.46001000000000003,4.604831213375434
81,0.48001,4.451174351653458
81,0.50001,4.301585134762978
81,0.52001,4.156254673343485
81,0.54001,4.015317260765884
81,0.56001,3.878857514214441
81,0.5800099999999999,3.7469176197226624
81,0.6000099999999999,3.619503618099788
81,0.62001,3.4965911347056977
81,0.64001,3.378130443254223
81,0.66001,3.2640509942827296
81,0.68001,3.1542654644609756
81,0.70001,3.04867328260644
81,0.7200099999999999,2.9471635638220284
81,0.74001,2.8496177920941097
81,0.76001,2.755912006850291
81,0.78001,2.665918647824921
81,0.80001,2.5795081551589325
81,0.82001,2.4965503242060727
81,0.8400099999999999,2.4169153427587644
81,0.8600099999999999,2.340474666724116
81,0.88001,2.2671017929180963
81,0.90001,2.1966728317861297
81,0.92001,2.1290669232091104
81,0.94001,2.064166573700475
81,0.9600099999999999,2.001857927864175
81,0.9800099999999999,1.9420311838361064
101,0.00001,7.556080911939425
101,0.02001,7.552470476616895
101,0.040010000000000004,7.54166761337437
101,0.06001,7.523735582235571
101,0.08001,7.498778699011371
101,0.10001,7.46694079015472
101,0.12000999999999999,7.428403092232502
101,0.14001000000000002,7.383381653901282
101,0.16001,7.332124310155188
101,0.18001,7.274907307486389
101,0.20001000000000002,7.212031664216514
101,0.22001,7.143819352603305
101,0.24001,7.0706093885194035
101,0.26001,6.992753915832716
101,0.28001000000000004,6.910614368585901
101,0.30001,6.824557690596279
101,0.32001,6.734952838473852
101,0.34001000000000003,6.642167502100657
101,0.36001,6.54656509556672
101,0.38001,6.44850205229601
101,0.40001000000000003,6.348325441963409
101,0.42001,6.246370924945486
101,0.44001,6.142960997920776
101,0.46001000000000003,6.0384035986713425
101,0.48001,5.932991010914963
101,0.50001,5.826999055091872
101,0.52001,5.7206865243471805
101,0.54001,5.614294883170998
101,0.56001,5.508048180805413
101,0.5800099999999999,5.402153153425417
101,0.6000099999999999,5.296799465229773
101,0.62001,5.192160111594055
101,0.64001,5.088391940855736
101,0.66001,4.985636264134533
101,0.68001,4.884019513592533
101,0.70001,4.783653969053415
101,0.7200099999999999,4.684638541481911
101,0.74001,4.587059569384708
101,0.76001,4.490991612095936
101,0.78001,4.39649819358223
101,0.80001,4.303632652803523
101,0.82001,4.2124389131751645
101,0.8400099999999999,4.122952275358027
101,0.8600099999999999,4.035200025094166
101,0.88001,3.9492021533098645
101,0.90001,3.864972077834598
101,0.92001,3.7825172579206976
101,0.94001,3.701839773079565
101,0.9600099999999999,3.6229369011180874
101,0.9800099999999999,3.545801672620997
121,0.00001,7.556080912725513
121,0.02001,7.555616310380604
121,0.040010000000000004,7.554223784566912
121,0.06001,7.551904392584008
121,0.08001,7.548659893862538
121,0.10001,7.5444927465438365
121,0.12000999999999999,7.5394061027108625
121,0.14001000000000002,7.533403802289145
121,0.16001,7.52649036563964
121,0.18001,7.518670984870734
121,0.20001000000000002,7.509951513901522
121,0.22001,7.500338457312632
121,0.24001,7.489838958024273
121,0.26001,7.4784607838464945
121,0.28001000000000004,7.466212312948953
121,0.30001,7.453102518301812
121,0.32001,7.43914095114187
121,0.34001000000000003,7.424337723521238
121,0.36001,7.408703489997591
121,0.38001,7.392249428528461
121,0.40001000000000003,7.374987220632451
121,0.42001,7.356929030882378
121,0.44001,7.338087485796751
121,0.46001000000000003,7.318475652196069
121,0.48001,7.298107015091636
121,0.50001,7.276995455174094
121,0.52001,7.255155225969256
121,0.54001,7.232600930727995
121,0.56001,7.209347499116384
121,0.5800099999999999,7.185410163771336
121,0.6000099999999999,7.160804436785079
121,0.62001,7.135546086181589
121,0.64001,7.109651112444636
121,0.66001,7.08313572515684
121,0.68001,7.056016319805712
121,0.70001,7.028309454819785
121,0.7200099999999999,7.000031832030317
121,0.74001,6.971200269956884
121,0.76001,6.941831680161183
121,0.78001,6.911943048436208
121,0.80001,6.881551413696239
121,0.82001,6.8506738473361946
121,0.8400099999999999,6.81932743312281
121,0.8600099999999999,6.787529247647658
121,0.88001,6.755296341376132
121,0.90001,6.722645720326452
121,0.92001,6.689594328421251
121,0.94001,6.656159030573868
121,0.9600099999999999,6.622356596645572
121,0.9800099999999999,6.588203686730452
141,0.00001,7.556080913218777
141,0.02001,7.557591430240473
141,0.040010000000000004,7.562123720396002
141,0.06001,7.569689092414798
141,0.08001,7.58030648509541
141,0.10001,7.594002589592841
141,0.12000999999999999,7.610812022721214
141,0.14001000000000002,7.6307775534422655
141,0.16001,7.653950385411346
141,0.18001,7.680390499181657
141,0.20001000000000002,7.710167056333886
141,0.22001,7.743358873882401
141,0.24001,7.780054980994171
141,0.26001,7.820355251347072
141,0.28001000000000004,7.86437113042617
141,0.30001,7.9122264658806865
141,0.32001,7.964058453304486
141,0.34001000000000003,8.020018712023912
141,0.36001,8.080274508043713
141,0.38001,8.1450101443402
141,0.40001000000000003,8.214428542326942
141,0.42001,8.288753042679408
141,0.44001,8.368229456754744
141,0.46001000000000003,8.453128382203046
141,0.48001,8.543747913401821
141,0.50001,8.64041671631594
141,0.52001,8.743497560367063
141,0.54001,8.853391400178058
141,0.56001,8.970542100866785
141,0.5800099999999999,9.095441904165039
141,0.6000099999999999,9.228637783019348
141,0.62001,9.370738981035377
141,0.64001,9.522425783073281
141,0.66001,9.684459902456313
141,0.68001,9.8576967350173
141,0.70001,10.043100081038098
141,0.7200099999999999,10.241759824350488
141,0.74001,10.454913211771927
141,0.76001,10.68397065129449
141,0.78001,10.930547542280156
141,0.80001,11.196503350119064
141,0.82001,11.483990235659975
141,0.8400099999999999,11.79551461793824
141,0.8600099999999999,12.134014767668678
141,0.88001,12.50296018401655
141,0.90001,12.906482287557964
141,0.92001,13.349544770800996
141,0.94001,13.83817358344333
141,0.9600099999999999,14.379768730336654
141,0.9800099999999999,14.983539064241125
161,0.00001,7.556080913557595
161,0.02001,7.5589488797939985
161,0.040010000000000004,7.5675607463366905
161,0.06001,7.581957962825838
161,0.08001,7.602210315204293
161,0.10001,7.628416805304646
161,0.12000999999999999,7.660706912801028
161,0.14001000000000002,7.699242270180664
161,0.16001,7.744218785247854
161,0.18001,7.795869292337163
161,0.20001000000000002,7.854466775850833
161,0.22001,7.920328263280706
161,0.24001,7.993819502932108
161,0.26001,8.075360564947596
161,0.28001000000000004,8.165432541704789
161,0.30001,8.264585569179722
161,0.32001,8.373448446502463
161,0.34001000000000003,8.492740149598994
161,0.36001,8.623283838776054
161,0.38001,8.766023818411243
161,0.40001000000000003,8.922046213653735
161,0.42001,9.092604367733463
161,0.44001,9.279150141859336
161,0.46001000000000003,9.483373169938698
161,0.48001,9.70725010541703
161,0.50001,9.953107015064072
161,0.52001,10.223699655129673
161,0.54001,10.522317783540823
161,0.56001,10.852922133513662
161,0.5800099999999999,11.220327866697192
161,0.6000099999999999,11.630453232916757
161,0.62001,12.090664953567666
161,0.64001,12.610264528416868
161,0.66001,13.201196117516151
161,0.68001,13.87910097198696
161,0.70001,14.664947957831195
161,0.7200099999999999,15.587657938344355
161,0.74001,16.68854987090826
161,0.76001,18.02937321441237
161,0.78001,19.708104293282222
161,0.80001,20.
161,0.82001,20.
161,0.8400099999999999,20.
161,0.8600099999999999,20.
161,0.88001,20.
161,0.90001,20.
161,0.92001,20.
161,0.94001,20.
161,0.9600099999999999,20.
161,0.9800099999999999,20.
181,0.00001,7.556080913808574
181,0.02001,7.559954658926871
181,0.040010000000000004,7.571593558751647
181,0.06001,7.591074978275635
181,0.08001,7.618529839912702
181,0.10001,7.6541449355552755
181,0.12000999999999999,7.698166278349763
181,0.14001000000000002,7.750903601124359
181,0.16001,7.812736198312423
181,0.18001,7.884120302795995
181,0.20001000000000002,7.965598291073498
181,0.22001,8.057810104510502
181,0.24001,8.161507381571893
181,0.26001,8.277570954716046
181,0.28001000000000004,8.407032563205416
181,0.30001,8.551101848583718
181,0.32001,8.711200399158614
181,0.34001000000000003,8.88900469072034
181,0.36001,9.08650086563242
181,0.38001,9.306055163522192
181,0.40001000000000003,9.550506034827048
181,0.42001,9.823285721141517
181,0.44001,10.128583000239232
181,0.46001000000000003,10.471565666766297
181,0.48001,10.858689327051648
181,0.50001,11.298136746466845
181,0.52001,11.800458248333141
181,0.54001,12.379535076712894
181,0.56001,13.054077189682788
181,0.5800099999999999,13.850060420807443
181,0.6000099999999999,14.804901721008061
181,0.62001,15.975110829550484
181,0.64001,17.45160648571113
181,0.66001,19.39436316733736
181,0.68001,20.
181,0.70001,20.
181,0.7200099999999999,20.
181,0.74001,20.
181,0.76001,20.
181,0.78001,20.
181,0.80001,20.
181,0.82001,20.
181,0.8400099999999999,20.
181,0.8600099999999999,20.
181,0.88001,20.
181,0.90001,20.
181,0.92001,20.
181,0.94001,20.
181,0.9600099999999999,20.
181,0.9800099999999999,20.
201,0.00001,7.5560809140068645
201,0.02001,7.560749565302743
201,0.040010000000000004,7.574783914594808
201,0.06001,7.598299734933988
201,0.08001,7.631493998289387
201,0.10001,7.674649266321896
201,0.12000999999999999,7.7281401150974345
201,0.14001000000000002,7.792441887268882
201,0.16001,7.868142218349752
201,0.18001,7.955955856429437
201,0.20001000000000002,8.056743580365913
201,0.22001,8.171536261845572
201,0.24001,8.301565503097684
201,0.26001,8.448302781721535
201,0.28001000000000004,8.61350976165495
201,0.30001,8.799303852724462
201,0.32001,9.00824415271431
201,0.34001000000000003,9.243445696556233
201,0.36001,9.50873381933216
201,0.38001,9.808856619473673
201,0.40001000000000003,10.149782444294441
201,0.42001,10.539127721191187
201,0.44001,10.986787934002685
201,0.46001000000000003,11.505900006650943
201,0.48001,12.114368245190496
201,0.50001,12.837399407209173
201,0.52001,13.711974094183041
201,0.54001,14.795356003078412
201,0.56001,16.18303352215691
201,0.5800099999999999,18.052522565425942
201,0.6000099999999999,20.
201,0.62001,20.
201,0.64001,20.
201,0.66001,20.
201,0.68001,20.
201,0.70001,20.
201,0.7200099999999999,20.
201,0.74001,20.
201,0.76001,20.
201,0.78001,20.
201,0.80001,20.
201,0.82001,20.
201,0.8400099999999999,20.
201,0.8600099999999999,20.
201,0.88001,20.
201,0.90001,20.
201,0.92001,20.
201,0.94001,20.
201,0.9600099999999999,19.19067455171892
201,0.9800099999999999,18.046370423836375
221,0.00001,7.556080914172508
221,0.02001,7.561413786394139
221,0.040010000000000004,7.577452359867813
221,0.06001,7.604353382204669
221,0.08001,7.642385090182641
221,0.10001,7.691934425872748
221,0.12000999999999999,7.753517700182642
221,0.14001000000000002,7.827795336785352
221,0.16001,7.915591551366483
221,0.18001,8.017920173101295
221,0.20001000000000002,8.136018346076769
221,0.22001,8.271390521658784
221,0.24001,8.425866151348801
221,0.26001,8.60167587462228
221,0.28001000000000004,8.801553711486696
221,0.30001,9.028875655033579
221,0.32001,9.287850895127914
221,0.34001000000000003,9.583791454600313
221,0.36001,9.92350163170517
221,0.38001,10.315855745431934
221,0.40001000000000003,10.772686200820042
221,0.42001,11.31020328408606
221,0.44001,11.951382989480305
221,0.46001000000000003,12.7302427539803
221,0.48001,13.700147092446477
221,0.50001,14.951845854379346
221,0.52001,16.65954701416377
221,0.54001,19.234579658600047
221,0.56001,20.
221,0.5800099999999999,20.
221,0.6000099999999999,20.
221,0.62001,20.
221,0.64001,20.
221,0.66001,20.
221,0.68001,20.
221,0.70001,20.
221,0.7200099999999999,20.
221,0.74001,20.
221,0.76001,20.
221,0.78001,20.
221,0.80001,20.
221,0.82001,19.837801531672426
221,0.8400099999999999,18.457225715742272
221,0.8600099999999999,17.212720165927905
221,0.88001,16.084138198629077
221,0.90001,15.055249126335589
221,0.92001,14.112816367441352
221,0.94001,13.245921592674785
221,0.9600099999999999,12.445472345056555
221,0.9800099999999999,11.703828799484063
241,0.00001,7.556080914317645
241,0.02001,7.561995713126899
241,0.040010000000000004,7.5797926716701
241,0.06001,7.60967324668682
241,0.08001,7.651984362795652
241,0.10001,7.707229422361182
241,0.12000999999999999,7.776084758126427
241,0.14001000000000002,7.859422700789702
241,0.16001,7.958342866104659
241,0.18001,8.074214072135884
241,0.20001000000000002,8.208730371164885
241,0.22001,8.363986273183585
241,0.24001,8.542578555874966
241,0.26001,8.747746191775661
241,0.28001000000000004,8.983565977228325
241,0.30001,9.255231526551885
241,0.32001,9.569461700193514
241,0.34001000000000003,9.935117715739814
241,0.36001,10.364168960691453
241,0.38001,10.87327628568734
241,0.40001000000000003,11.486535119495226
241,0.42001,12.240584088254876
241,0.44001,13.195068563382295
241,0.46001000000000003,14.457152526253527
241,0.48001,16.252092114113026
241,0.50001,19.219753150702278
241,0.52001,20.
241,0.54001,20.
241,0.56001,20.
241,0.5800099999999999,20.
241,0.6000099999999999,20.
241,0.62001,20.
241,0.64001,20.
241,0.66001,20.
241,0.68001,20.
241,0.70001,20.
241,0.7200099999999999,20.
241,0.74001,18.68024192054154
241,0.76001,17.258185970652555
241,0.78001,15.985302210255021
241,0.80001,14.838224297377337
241,0.82001,13.798375352463104
241,0.8400099999999999,12.850781746100646
241,0.8600099999999999,11.98322299706726
241,0.88001,11.185616218783453
241,0.90001,10.44955803518038
241,0.92001,9.767983585168846
241,0.94001,9.134904196184205
241,0.9600099999999999,8.545204719699154
241,0.9800099999999999,7.9944883991191205
261,0.00001,7.556080914449897
261,0.02001,7.562525953492387
261,0.040010000000000004,7.581927642707437
261,0.06001,7.6145374179522465
261,0.08001,7.660791206281488
261,0.10001,7.721325529391537
261,0.12000999999999999,7.79700185999203
261,0.14001000000000002,7.88894126416867
261,0.16001,7.99857224455562
261,0.18001,8.12769627585625
261,0.20001000000000002,8.27857772803243
261,0.22001,8.454068335630861
261,0.24001,8.657781885811183
261,0.26001,8.894344813534229
261,0.28001000000000004,9.16976395607059
261,0.30001,9.491982760049977
261,0.32001,9.87175529026281
261,0.34001000000000003,10.32408129895435
261,0.36001,10.870701874709226
261,0.38001,11.544764639193335
261,0.40001000000000003,12.400435045119098
261,0.42001,13.535593465372449
261,0.44001,15.158053500170059
261,0.46001000000000003,17.871514590935984
261,0.48001,20.
261,0.50001,20.
261,0.52001,20.
261,0.54001,20.
261,0.56001,20.
261,0.5800099999999999,20.
261,0.6000099999999999,20.
261,0.62001,20.
261,0.64001,20.
261,0.66001,19.147702376565498
261,0.68001,17.519977214150327
261,0.70001,16.08328240471142
261,0.7200099999999999,14.804353458886405
261,0.74001,13.657459789247572
261,0.76001,12.622351427796561
261,0.78001,11.682847297417918
261,0.80001,10.825844724726531
261,0.82001,10.040605829266317
261,0.8400099999999999,9.318238391792649
261,0.8600099999999999,8.651305844743884
261,0.88001,8.033536989226455
261,0.90001,7.459600064301068
261,0.92001,6.924929879662579
261,0.94001,6.425591344101565
261,0.9600099999999999,5.958172686959323
261,0.9800099999999999,5.5196995537612175
281,0.00001,7.556080914574245
281,0.02001,7.563024636761355
281,0.040010000000000004,7.5839382053877005
281,0.06001,7.619129973629591
281,0.08001,7.6691383673802145
281,0.10001,7.734754821949214
281,0.12000999999999999,7.817058919735207
281,0.14001000000000002,7.91746913849032
281,0.16001,8.037814337180691
281,0.18001,8.180434050815053
281,0.20001000000000002,8.348320106475462
281,0.22001,8.545319342779187
281,0.24001,8.77643010371911
281,0.26001,9.048248045726577
281,0.28001000000000004,9.369658741920198
281,0.30001,9.752961111005824
281,0.32001,10.215787949308783
281,0.34001000000000003,10.784617696374356
281,0.36001,11.501792234727096
281,0.38001,12.441378171798553
281,0.40001000000000003,13.752262403428531
281,0.42001,15.819204753800971
281,0.44001,20.
281,0.46001000000000003,20.
281,0.48001,20.
281,0.50001,20.
281,0.52001,20.
281,0.54001,20.
281,0.56001,20.
281,0.5800099999999999,20.
281,0.6000099999999999,19.230875932498755
281,0.62001,17.442911544301626
281,0.64001,15.88333008046597
281,0.66001,14.509105749998266
281,0.68001,13.28769975197866
281,0.70001,12.193997564559107
281,0.7200099999999999,11.208273084355982
281,0.74001,10.31478773684644
281,0.76001,9.500815804039094
281,0.78001,8.755940050343415
281,0.80001,8.071543146051495
281,0.82001,7.44042519499297
281,0.8400099999999999,6.856518456535333
281,0.8600099999999999,6.314667658531046
281,0.88001,5.810462370242481
281,0.90001,5.340103213180028
281,0.92001,4.900297462384685
281,0.94001,4.488175731912811
281,0.9600099999999999,4.1012244400943425
281,0.9800099999999999,3.7372310340309296
301,0.00001,7.5560809146941095
301,0.02001,7.5635054431976485
301,0.040010000000000004,7.585879519575691
301,0.06001,7.623577085454276
301,0.08001,7.677255923944831
301,0.10001,7.747889728646175
301,0.12000999999999999,7.836817896145919
301,0.14001000000000002,7.945818635835016
301,0.16001,8.077214180140391
301,0.18001,8.234022274932176
301,0.20001000000000002,8.42017687629226
301,0.22001,8.640856129158754
301,0.24001,8.902984453177584
301,0.26001,9.216029157922208
301,0.28001000000000004,9.593323659599134
301,0.30001,10.054399884485806
301,0.32001,10.629421697345853
301,0.34001000000000003,11.368524474453196
301,0.36001,12.364593553642548
301,0.38001,13.823308017215245
301,0.40001000000000003,16.402402174029508
301,0.42001,20.
301,0.44001,20.
301,0.46001000000000003,20.
301,0.48001,20.
301,0.50001,20.
301,0.52001,20.
301,0.54001,20.
301,0.56001,18.368477679627354
301,0.5800099999999999,16.55585265749878
301,0.6000099999999999,14.983842328419415
301,0.62001,13.605557122787665
301,0.64001,12.385901954400225
301,0.66001,11.298029908962022
301,0.68001,10.321010304958705
301,0.70001,9.438257441936956
301,0.7200099999999999,8.636435360333744
301,0.74001,7.9046856756238375
301,0.76001,7.2340656166021375
301,0.78001,6.617133170904934
301,0.80001,6.047640172535685
301,0.82001,5.520297305899817
301,0.8400099999999999,5.03059110995444
301,0.8600099999999999,4.574645344938172
301,0.88001,4.149109496065218
301,0.90001,3.751070583484104
301,0.92001,3.377982351141925
301,0.94001,3.027609168659462
301,0.9600099999999999,2.6979772072395094
301,0.9800099999999999,2.387337812741469
321,0.00001,7.556080914811926
321,0.02001,7.563977935448036
321,0.040010000000000004,7.587790289232008
321,0.06001,7.627967964050541
321,0.08001,7.685308489777699
321,0.10001,7.761001136984621
321,0.12000999999999999,7.85669651800574
321,0.14001000000000002,7.974610610546202
321,0.16001,8.117677934548517
321,0.18001,8.289778392235092
321,0.20001000000000002,8.496079193515879
321,0.22001,8.743564656355462
321,0.24001,9.041889306716683
321,0.26001,9.404818184845565
321,0.28001000000000004,9.85281609365308
321,0.30001,10.41809936751918
321,0.32001,11.155660687907922
321,0.34001000000000003,12.171613570284112
321,0.36001,13.71864629968266
321,0.38001,16.77865591566757
321,0.40001000000000003,20.
321,0.42001,20.
321,0.44001,20.
321,0.46001000000000003,20.
321,0.48001,20.
321,0.50001,20.
321,0.52001,18.224157139671423
321,0.54001,16.299242725240287
321,0.56001,14.645576386715982
321,0.5800099999999999,13.207327157791278
321,0.6000099999999999,11.943440950146698
321,0.62001,10.82297880602532
321,0.64001,9.822127458608627
321,0.66001,8.922225777759786
321,0.68001,8.108415688834537
321,0.70001,7.368702044295054
321,0.7200099999999999,6.693281106262915
321,0.74001,6.0740505984317235
321,0.76001,5.5042506711619446
321,0.78001,4.978188459054815
321,0.80001,4.491032819544369
321,0.82001,4.0386533508884686
321,0.8400099999999999,3.6174946380707764
321,0.8600099999999999,3.2244793095542743
321,0.88001,2.8569258914194537
321,0.90001,2.5124877042403253
321,0.92001,2.189100701855907
321,0.94001,1.884941364619568
321,0.9600099999999999,1.5983923167626346
321,0.9800099999999999,1.3280122843473743
341,0.00001,7.5560809149293116
341,0.02001,7.564448962935557
341,0.040010000000000004,7.5896983790043135
341,0.06001,7.632367503294828
341,0.08001,7.693417725016576
341,0.10001,7.774293672644661
341,0.12000999999999999,7.877019408407004
341,0.14001000000000002,8.004344962895576
341,0.16001,8.15996748551004
341,0.18001,8.348868848386681
341,0.20001000000000002,8.577843816470649
341,0.22001,8.856357238738068
341,0.24001,9.198004974274154
341,0.26001,9.623165720852569
341,0.28001000000000004,10.164241595926056
341,0.30001,10.877291834463469
341,0.32001,11.872720880647158
341,0.34001000000000003,13.423443422936861
341,0.36001,16.721337965236042
341,0.38001,20.
341,0.40001000000000003,20.
341,0.42001,20.
341,0.44001,20.
341,0.46001000000000003,20.
341,0.48001,18.748505619168878
341,0.50001,16.611666333265344
341,0.52001,14.800941736979402
341,0.54001,13.244047638316486
341,0.56001,11.88918482921577
341,0.5800099999999999,10.698153942078504
341,0.6000099999999999,9.64209125919909
341,0.62001,8.698734951272488
341,0.64001,7.850602585460189
341,0.66001,7.083751321226508
341,0.68001,6.386906104305394
341,0.70001,5.750839102233414
341,0.7200099999999999,5.167915110412458
341,0.74001,4.6317550495851005
341,0.76001,4.136982943173592
341,0.78001,3.6790314031850038
341,0.80001,3.253993935345899
341,0.82001,2.8585041977397196
341,0.8400099999999999,2.4896459249930087
341,0.8600099999999999,2.1448781477791035
341,0.88001,1.8219755776346722
341,0.90001,1.5189804997047205
341,0.92001,1.2341617842704549
341,0.94001,0.9659842496909097
341,0.9600099999999999,0.7130803632534718
341,0.9800099999999999,0.47422723843814424
361,0.00001,7.556080915047661
361,0.02001,7.564923537752446
361,0.040010000000000004,7.59162431945259
361,0.06001,7.636824181172163
361,0.08001,7.701676432435063
361,0.10001,7.787927876939379
361,0.12000999999999999,7.898050456173282
361,0.14001000000000002,8.035445916960796
361,0.16001,8.204762929966767
361,0.18001,8.412397341127292
361,0.20001000000000002,8.667307356887088
361,0.22001,8.982406222682176
361,0.24001,9.377094396780373
361,0.26001,9.88226556977649
361,0.28001000000000004,10.551422950166874
361,0.30001,11.489984587486783
361,0.32001,12.95835752089528
361,0.34001000000000003,16.085650925866005
361,0.36001,20.
361,0.38001,20.
361,0.40001000000000003,20.
361,0.42001,20.
361,0.44001,20.
361,0.46001000000000003,17.523664709429895
361,0.48001,15.456972311868066
361,0.50001,13.707865012797942
361,0.52001,12.205695327273368
361,0.54001,10.89990185967338
361,0.56001,9.753233348532277
361,0.5800099999999999,8.73756800491917
361,0.6000099999999999,7.831227256796223
361,0.62001,7.017197408955077
361,0.64001,6.281913591996558
361,0.66001,5.614411949015529
361,0.68001,5.0057212156906035
361,0.70001,4.448421215981608
361,0.7200099999999999,3.9363145780798523
361,0.74001,3.4641792440646255
361,0.76001,3.027581659805974
361,0.78001,2.6227277829101454
361,0.80001,2.2463514094558206
361,0.82001,1.895623268818819
361,0.8400099999999999,1.5680793102067823
361,0.8600099999999999,1.2615613531302319
361,0.88001,0.9741719105595253
361,0.90001,0.7042347482747655
361,0.92001,0.4502623944516578
361,0.94001,0.21093069219545563
361,0.9600099999999999,0.
361,0.9800099999999999,0.
381,0.00001,7.556080915167777
381,0.02001,7.5654053977015785
381,0.040010000000000004,7.593583561528864
381,0.06001,7.6413751473443545
381,0.08001,7.710157655907731
381,0.10001,7.80203459060326
381,0.12000999999999999,7.920014029172271
381,0.14001000000000002,8.068292355587024
381,0.16001,8.252706421405906
381,0.18001,8.48147254024281
381,0.20001000000000002,8.766445857389504
381,0.22001,9.125398361692511
381,0.24001,9.586481624938997
381,0.26001,10.198000207620609
381,0.28001000000000004,11.05361154575777
381,0.30001,12.37737440004933
381,0.32001,15.042220623462645
381,0.34001000000000003,20.
381,0.36001,20.
381,0.38001,20.
381,0.40001000000000003,20.
381,0.42001,19.167587863273184
381,0.44001,16.695136230469615
381,0.46001000000000003,14.648068639777115
381,0.48001,12.921184565085696
381,0.50001,11.442246634407953
381,0.52001,10.15982197117106
381,0.54001,9.03617652455672
381,0.56001,8.04292375228783
381,0.5800099999999999,7.158247540090353
381,0.6000099999999999,6.365067964234413
381,0.62001,5.649799366405945
381,0.64001,5.001481459050237
381,0.66001,4.411162323011587
381,0.68001,3.871449291676441
381,0.70001,3.3761764987375122
381,0.7200099999999999,2.9201567696744832
381,0.74001,2.4989889383656285
381,0.76001,2.108913182932156
381,0.78001,1.7466955919986968
381,0.80001,1.4095381650922898
381,0.82001,1.0950050478282431
381,0.8400099999999999,0.8009673268036327
381,0.8600099999999999,0.5255531553293291
381,0.88001,0.26711053665608936
381,0.90001,0.024175685022608723
381,0.92001,0.
381,0.94001,0.
381,0.9600099999999999,0.
381,0.9800099999999999,0.
401,0.00001,7.556080915290464
401,0.02001,7.565897377968024
401,0.040010000000000004,7.595587965532427
401,0.06001,7.64604958724149
401,0.08001,7.718920713343975
401,0.10001,7.8167245559486345
401,0.12000999999999999,7.943109358956125
401,0.14001000000000002,8.103239128348072
401,0.16001,8.304435308287408
401,0.18001,8.557266434319322
401,0.20001000000000002,8.8774988418671
401,0.22001,9.289859060958962
401,0.24001,9.83607641677542
401,0.26001,10.594860459959959
401,0.28001000000000004,11.74498065939152
401,0.30001,13.887769077898069
401,0.32001,20.
401,0.34001000000000003,20.
401,0.36001,20.
401,0.38001,20.
401,0.40001000000000003,18.70312023478063
401,0.42001,16.18740685155066
401,0.44001,14.11730915285668
401,0.46001000000000003,12.379799897905425
401,0.48001,10.898094301689028
401,0.50001,9.617988887248858
401,0.52001,8.50000190674689
401,0.54001,7.514606793362547
401,0.56001,6.639225487643013
401,0.5800099999999999,5.8562588616999225
401,0.6000099999999999,5.151761481686901
401,0.62001,4.514519774658953
401,0.64001,3.9354027972553838
401,0.66001,3.4068895856752275
401,0.68001,2.9227239275433865
401,0.70001,2.477651773369051
401,0.7200099999999999,2.067226309812201
401,0.74001,1.687655161597161
401,0.76001,1.3356827768597315
401,0.78001,1.0084955385029415
401,0.80001,0.7036506016680136
401,0.82001,0.41901343740746244
401,0.8400099999999999,0.15271135281976556
401,0.8600099999999999,0.
401,0.88001,0.
401,0.90001,0.
401,0.92001,0.
401,0.94001,0.
401,0.9600099999999999,0.
401,0.9800099999999999,0.
421,0.00001,7.55608091541617
421,0.02001,7.566401662300262
421,0.040010000000000004,7.597646807844779
421,0.06001,7.650870999740956
421,0.08001,7.728015296666906
421,0.10001,7.832095006050752
421,0.12000999999999999,7.967520652608601
421,0.14001000000000002,8.140632874979529
421,0.16001,8.36060954052185
421,0.18001,8.64107133804198
421,0.20001000000000002,9.00311679199042
421,0.22001,9.481618504573929
421,0.24001,10.14015365690876
421,0.26001,11.114582779749107
421,0.28001000000000004,12.79941205127938
421,0.30001,20.
421,0.32001,20.
421,0.34001000000000003,20.
421,0.36001,20.
421,0.38001,18.57251468530597
421,0.40001000000000003,15.957781218302411
421,0.42001,13.82434077031243
421,0.44001,12.045870409006394
421,0.46001000000000003,10.537829904813947
421,0.48001,9.241258959971693
421,0.50001,8.113632499477594
421,0.52001,7.123412246354557
421,0.54001,6.246648618393721
421,0.56001,5.464787612224081
421,0.5800099999999999,4.763202268011993
421,0.6000099999999999,4.1301864273398685
421,0.62001,3.5562460067432418
421,0.64001,3.0335916195926167
421,0.66001,2.5557620548804096
421,0.68001,2.1173496886385803
421,0.70001,1.7137896904257315
421,0.7200099999999999,1.3411994484147949
421,0.74001,0.9962522669210924
421,0.76001,0.6760821391795788
421,0.78001,0.3782032787013991
421,0.80001,0.10044936772912041
421,0.82001,0.
421,0.8400099999999999,0.
421,0.8600099999999999,0.
421,0.88001,0.
421,0.90001,0.
421,0.92001,0.
421,0.94001,0.
421,0.9600099999999999,0.
421,0.9800099999999999,0.
441,0.00001,7.55608091554539
441,0.02001,7.566919956359774
441,0.040010000000000004,7.59976747604518
441,0.06001,7.655858772410061
441,0.08001,7.73748432198268
441,0.10001,7.848234311844777
441,0.12000999999999999,7.993424490876623
441,0.14001000000000002,8.180824579968071
441,0.16001,8.421936728666257
441,0.18001,8.73436260124612
441,0.20001000000000002,9.14655602873308
441,0.22001,9.708545408237109
441,0.24001,10.520786257608563
441,0.26001,11.839051792086186
441,0.28001000000000004,14.875441823302229
441,0.30001,20.
441,0.32001,20.
441,0.34001000000000003,20.
441,0.36001,18.76083095364303
441,0.38001,15.986430404031541
441,0.40001000000000003,13.747450812981782
441,0.42001,11.89724175494735
441,0.44001,10.339568790750342
441,0.46001000000000003,9.008360451851143
441,0.48001,7.856569291946008
441,0.50001,6.849671535776903
441,0.52001,5.961685390027534
441,0.54001,5.172636906828575
441,0.56001,4.46688352705449
441,0.5800099999999999,3.8319801980051142
441,0.6000099999999999,3.257885222230368
441,0.62001,2.736397135383374
441,0.64001,2.260741982363864
441,0.66001,1.8252712660475376
441,0.68001,1.4252336433038335
441,0.70001,1.0565990902547815
441,0.7200099999999999,0.7159274917516928
441,0.74001,0.40026040151823267
441,0.76001,0.107039882280611
441,0.78001,0.
441,0.80001,0.
441,0.82001,0.
441,0.8400099999999999,0.
441,0.8600099999999999,0.
441,0.88001,0.
441,0.90001,0.
441,0.92001,0.
441,0.94001,0.
441,0.9600099999999999,0.
441,0.9800099999999999,0.
461,0.00001,7.556080915678406
461,0.02001,7.567453609628004
461,0.040010000000000004,7.601955958001845
461,0.06001,7.661029292281402
461,0.08001,7.747365953908328
461,0.10001,7.8652253538647345
461,0.12000999999999999,8.020995494797878
461,0.14001000000000002,8.224180319942693
461,0.16001,8.489197514702845
461,0.18001,8.83887456529875
461,0.20001000000000002,9.311957525420155
461,0.22001,9.981798066670876
461,0.24001,11.015339456405586
461,0.26001,12.972598737327852
461,0.28001000000000004,20.
461,0.30001,20.
461,0.32001,20.
461,0.34001000000000003,19.278615481517026
461,0.36001,16.272072995255115
461,0.38001,13.87933887817766
461,0.40001000000000003,11.92349537038355
461,0.42001,10.291312455728246
461,0.44001,8.906566921745618
461,0.46001000000000003,7.7158420478540775
461,0.48001,6.680451890943339
461,0.50001,5.771602901928951
461,0.52001,4.967366138701741
461,0.54001,4.250707881387292
461,0.56001,3.6081704629497744
461,0.5800099999999999,3.028964882927053
461,0.6000099999999999,2.5043251032016114
461,0.62001,2.0270487359674996
461,0.64001,1.5911567434508298
461,0.66001,1.1916389275592445
461,0.68001,0.8242639599200169
461,0.70001,0.48543014313283445
461,0.7200099999999999,0.17205107819588203
461,0.74001,0.
461,0.76001,0.
461,0.78001,0.
461,0.80001,0.
461,0.82001,0.
461,0.8400099999999999,0.
461,0.8600099999999999,0.
461,0.88001,0.
461,0.90001,0.
461,0.92001,0.
461,0.94001,0.
461,0.9600099999999999,0.
461,0.9800099999999999,0.
481,0.00001,7.556080915815543
481,0.02001,7.568003702606128
481,0.040010000000000004,7.604217191926069
481,0.06001,7.6663967430767945
481,0.08001,7.757695073643496
481,0.10001,7.8831480446342725
481,0.12000999999999999,8.05041090115379
481,0.14001000000000002,8.271091239295641
481,0.16001,8.563273603350893
481,0.18001,8.956699534213707
481,0.20001000000000002,9.50477219894954
481,0.22001,10.318144503821973
481,0.24001,11.69591959125303
481,0.26001,15.467919901801983
481,0.28001000000000004,20.
481,0.30001,20.
481,0.32001,20.
481,0.34001000000000003,16.83141589852196
481,0.36001,14.225642359417488
481,0.38001,12.124155659733944
481,0.40001000000000003,10.389087283363219
481,0.42001,8.929870406002003
481,0.44001,7.684263698207521
481,0.46001000000000003,6.607905254017503
481,0.48001,5.6682135902376745
481,0.50001,4.8406524927361705
481,0.52001,4.106346426044486
481,0.54001,3.450507075144033
481,0.56001,2.8613649720694485
481,0.5800099999999999,2.3294198691009838
481,0.6000099999999999,1.8469110295043558
481,0.62001,1.407429771620269
481,0.64001,1.0056309536169827
481,0.66001,0.6370202774212201
481,0.68001,0.297786701157796
481,0.70001,0.
481,0.7200099999999999,0.
481,0.74001,0.
481,0.76001,0.
481,0.78001,0.
481,0.80001,0.
481,0.82001,0.
481,0.8400099999999999,0.
481,0.8600099999999999,0.
481,0.88001,0.
481,0.90001,0.
481,0.92001,0.
481,0.94001,0.
481,0.9600099999999999,0.
481,0.9800099999999999,0.
501,0.00001,7.556080915956994
501,0.02001,7.568571110158185
501,0.040010000000000004,7.606555320837985
501,0.06001,7.671973686997169
501,0.08001,7.768504366085449
501,0.10001,7.9020812807702985
501,0.12000999999999999,8.081854481067055
501,0.14001000000000002,8.321983562009429
501,0.16001,8.645180997282212
501,0.18001,9.090424104360787
501,0.20001000000000002,9.732449050523392
501,0.22001,10.74473047979822
501,0.24001,12.736441684279162
501,0.26001,20.
501,0.28001000000000004,20.
501,0.30001,20.
501,0.32001,17.702055900710388
501,0.34001000000000003,14.80566236371694
501,0.36001,12.508457025193174
501,0.38001,10.63628236604222
501,0.40001000000000003,9.078130865184125
501,0.42001,7.759508472317738
501,0.44001,6.628333140597875
501,0.46001000000000003,5.6469556190910515
501,0.48001,4.787398828010978
501,0.50001,4.02838306699694
501,0.52001,3.3533990935851246
501,0.54001,2.749418886467267
501,0.56001,2.206005600297625
501,0.5800099999999999,1.714690022168256
501,0.6000099999999999,1.268519989814851
501,0.62001,0.8617287536078571
501,0.64001,0.4894906361334073
501,0.66001,0.14773251847190197
501,0.68001,0.
501,0.70001,0.
501,0.7200099999999999,0.
501,0.74001,0.
501,0.76001,0.
501,0.78001,0.
501,0.80001,0.
501,0.82001,0.
501,0.8400099999999999,0.
501,0.8600099999999999,0.
501,0.88001,0.
501,0.90001,0.
501,0.92001,0.
501,0.94001,0.
501,0.9600099999999999,0.
501,0.9800099999999999,0.
521,0.00001,7.556080916102921
521,0.02001,7.569156548174973
521,0.040010000000000004,7.608973880197533
521,0.06001,7.677771495958689
521,0.08001,7.77982514234898
521,0.10001,7.922104512222104
521,0.12000999999999999,8.115520111296279
521,0.14001000000000002,8.377329349968996
521,0.16001,8.736111597093993
521,0.18001,9.243325765438277
521,0.20001000000000002,10.005622179320389
521,0.22001,11.310356881542202
521,0.24001,14.858907500588199
521,0.26001,20.
521,0.28001000000000004,20.
521,0.30001,18.949953537289485
521,0.32001,15.65548110687989
521,0.34001000000000003,13.096573483283443
521,0.36001,11.043983923150392
521,0.38001,9.356969059201447
521,0.40001000000000003,7.943780535724063
521,0.42001,6.7417425725165945
521,0.44001,5.706395292958653
521,0.46001000000000003,4.80521597590398
521,0.48001,4.013793353947383
521,0.50001,3.3134026217942623
521,0.52001,2.689411946813712
521,0.54001,2.130200402082929
521,0.56001,1.6264098846620563
521,0.5800099999999999,1.1704091640723642
521,0.6000099999999999,0.7559090463111333
521,0.62001,0.37767381777681086
521,0.64001,0.031307267238638845
521,0.66001,0.
521,0.68001,0.
521,0.70001,0.
521,0.7200099999999999,0.
521,0.74001,0.
521,0.76001,0.
521,0.78001,0.
521,0.80001,0.
521,0.82001,0.
521,0.8400099999999999,0.
521,0.8600099999999999,0.
521,0.88001,0.
521,0.90001,0.
521,0.92001,0.
521,0.94001,0.
521,0.9600099999999999,0.
521,0.9800099999999999,0.
541,0.00001,7.556080916253515
541,0.02001,7.569760608396234
541,0.040010000000000004,7.611475938081962
541,0.06001,7.683800676069043
541,0.08001,7.791687976431318
541,0.10001,7.943299057908546
541,0.12000999999999999,8.151615233488094
541,0.14001000000000002,8.437658712482559
541,0.16001,8.837487466059097
541,0.18001,9.419669213678613
541,0.20001000000000002,10.34032210237965
541,0.22001,12.118604035351225
541,0.24001,20.
541,0.26001,20.
541,0.28001000000000004,20.
541,0.30001,16.83457322016772
541,0.32001,13.922654690155186
541,0.34001000000000003,11.63238103145069
541,0.36001,9.778364588216057
541,0.38001,8.24399058574614
541,0.40001000000000003,6.9517935825332025
541,0.42001,5.84804834048925
541,0.44001,4.894174392553211
541,0.46001000000000003,4.061658770439361
541,0.48001,3.3289163583912047
541,0.50001,2.6792700289808846
541,0.52001,2.099604303559743
541,0.54001,1.5794484786641216
541,0.56001,1.1103294850389365
541,0.5800099999999999,0.6853121440865023
541,0.6000099999999999,0.29865825425697334
541,0.62001,0.
541,0.64001,0.
541,0.66001,0.
541,0.68001,0.
541,0.70001,0.
541,0.7200099999999999,0.
541,0.74001,0.
541,0.76001,0.
541,0.78001,0.
541,0.80001,0.
541,0.82001,0.
541,0.8400099999999999,0.
541,0.8600099999999999,0.
541,0.88001,0.
541,0.90001,0.
541,0.92001,0.
541,0.94001,0.
541,0.9600099999999999,0.
541,0.9800099999999999,0.
561,0.00001,7.556080916408837
561,0.02001,7.570383784705167
561,0.040010000000000004,7.614064201190806
561,0.06001,7.690071115352218
561,0.08001,7.80412321029056
561,0.10001,7.9657492596214725
561,0.12000999999999999,8.190364395312645
561,0.14001000000000002,8.50357431618419
561,0.16001,8.951034070725518
561,0.18001,9.62517337002702
561,0.20001000000000002,10.762526819167602
561,0.22001,13.47397675845035
561,0.24001,20.
561,0.26001,20.
561,0.28001000000000004,18.43848975147029
561,0.30001,15.040649918810933
561,0.32001,12.43361625079361
561,0.34001000000000003,10.362092340814732
561,0.36001,8.672467042231395
561,0.38001,7.26612104507403
561,0.40001000000000003,6.076481204390788
561,0.42001,5.056777484802883
561,0.44001,4.173064721235718
561,0.46001000000000003,3.4000348342093476
561,0.48001,2.718387071326208
561,0.50001,2.113112282860671
561,0.52001,1.572344984115786
561,0.54001,1.0865663360578206
561,0.56001,0.6480448277417298
561,0.5800099999999999,0.25042754502872294
561,0.6000099999999999,0.
561,0.62001,0.
561,0.64001,0.
561,0.66001,0.
561,0.68001,0.
561,0.70001,0.
561,0.7200099999999999,0.
561,0.74001,0.
561,0.76001,0.
561,0.78001,0.
561,0.80001,0.
561,0.82001,0.
561,0.8400099999999999,0.
561,0.8600099999999999,0.
561,0.88001,0.
561,0.90001,0.
561,0.92001,0.
561,0.94001,0.
561,0.9600099999999999,0.
561,0.9800099999999999,0.
581,0.00001,7.556080916569065
581,0.02001,7.5710264932010345
581,0.040010000000000004,7.6167410959246835
581,0.06001,7.696592275554248
581,0.08001,7.817161365413134
581,0.10001,7.989543541873038
581,0.12000999999999999,8.232013049193652
581,0.14001000000000002,8.575769149542527
581,0.16001,9.078882225875148
581,0.18001,9.867786957414378
581,0.20001000000000002,11.318934246578712
581,0.22001,20.
581,0.24001,20.
581,0.26001,20.
581,0.28001000000000004,16.535066599210257
581,0.30001,13.496935622420127
581,0.32001,11.138357752711684
581,0.34001000000000003,9.248360526710236
581,0.36001,7.697088391442294
581,0.38001,6.3997059278674016
581,0.40001000000000003,5.298147956236338
581,0.42001,4.351162700582226
581,0.44001,3.528534673338439
581,0.46001000000000003,2.807564101052833
581,0.48001,2.1708239939832756
581,0.50001,1.6046901113735832
581,0.52001,1.098339021393671
581,0.54001,0.6430550161691432
581,0.56001,0.23173155657925848
581,0.5800099999999999,0.
581,0.6000099999999999,0.
581,0.62001,0.
581,0.64001,0.
581,0.66001,0.
581,0.68001,0.
581,0.70001,0.
581,0.7200099999999999,0.
581,0.74001,0.
581,0.76001,0.
581,0.78001,0.
581,0.80001,0.
581,0.82001,0.
581,0.8400099999999999,0.
581,0.8600099999999999,0.
581,0.88001,0.
581,0.90001,0.
581,0.92001,0.
581,0.94001,0.
581,0.9600099999999999,0.
581,0.9800099999999999,0.
601,0.00001,7.556080916734228
601,0.02001,7.5716890876780445
601,0.040010000000000004,7.619508831062648
601,0.06001,7.703373343376913
601,0.08001,7.830833488075784
601,0.10001,8.014775429798378
601,0.12000999999999999,8.276831784111499
601,0.14001000000000002,8.655048888253797
601,0.16001,9.223714365383278
601,0.18001,10.159060748943684
601,0.20001000000000002,12.108653914407638
601,0.22001,20.
601,0.24001,20.
601,0.26001,18.541479137898513
601,0.28001000000000004,14.897942811707663
601,0.30001,12.152383451938716
601,0.32001,10.00006997099557
601,0.34001000000000003,8.263130565955406
601,0.36001,6.829937907766068
601,0.38001,5.626456783960825
601,0.40001000000000003,4.601404236395635
601,0.42001,3.7179900522784384
601,0.44001,2.9490497542060714
601,0.46001000000000003,2.2740367502195817
601,0.48001,1.6770884116581517
601,0.50001,1.1457432282749374
601,0.52001,0.670061063811492
601,0.54001,0.24200790202297606
601,0.56001,0.
601,0.5800099999999999,0.
601,0.6000099999999999,0.
601,0.62001,0.
601,0.64001,0.
601,0.66001,0.
601,0.68001,0.
601,0.70001,0.
601,0.7200099999999999,0.
601,0.74001,0.
601,0.76001,0.
601,0.78001,0.
601,0.80001,0.
601,0.82001,0.
601,0.8400099999999999,0.
601,0.8600099999999999,0.
601,0.88001,0.
601,0.90001,0.
601,0.92001,0.
601,0.94001,0.
601,0.9600099999999999,0.
601,0.9800099999999999,0.
621,0.00001,7.556080916904428
621,0.02001,7.57237187167377
621,0.040010000000000004,7.622369446706344
621,0.06001,7.7104233509085605
621,0.08001,7.84517144810949
621,0.10001,8.041544567471458
621,0.12000999999999999,8.3251211817334
621,0.14001000000000002,8.742360700146438
621,0.16001,9.38898172033319
621,0.18001,10.516782114022883
621,0.20001000000000002,13.423883048123935
621,0.22001,20.
621,0.24001,20.
621,0.26001,16.755864397533852
621,0.28001000000000004,13.472469710564345
621,0.30001,10.969354426668284
621,0.32001,8.990987937428573
621,0.34001000000000003,7.384867922072008
621,0.36001,6.053666554354854
621,0.38001,4.931980996475495
621,0.40001000000000003,3.974029120966492
621,0.42001,3.1466857943925803
621,0.44001,2.4253194246173435
621,0.46001000000000003,1.7911870438745972
621,0.48001,1.2297476055511576
621,0.50001,0.7295279834087426
621,0.52001,0.28134423645024637
621,0.54001,0.
621,0.56001,0.
621,0.5800099999999999,0.
621,0.6000099999999999,0.
621,0.62001,0.
621,0.64001,0.
621,0.66001,0.
621,0.68001,0.
621,0.70001,0.
621,0.7200099999999999,0.
621,0.74001,0.
621,0.76001,0.
621,0.78001,0.
621,0.80001,0.
621,0.82001,0.
621,0.8400099999999999,0.
621,0.8600099999999999,0.
621,0.88001,0.
621,0.90001,0.
621,0.92001,0.
621,0.94001,0.
621,0.9600099999999999,0.
621,0.9800099999999999,0.
641,0.00001,7.5560809170797265
641,0.02001,7.573075107929502
641,0.040010000000000004,7.625324852869998
641,0.06001,7.717751273390158
641,0.08001,7.860208205892563
641,0.10001,8.069957773316357
641,0.12000999999999999,8.377217519022526
641,0.14001000000000002,8.838831124042837
641,0.16001,9.579238830981668
641,0.18001,10.970619235871983
641,0.20001000000000002,20.
641,0.22001,20.
641,0.24001,19.268019924407252
641,0.26001,15.204770525893855
641,0.28001000000000004,12.218431849001906
641,0.30001,9.919415188962883
641,0.32001,8.089723808536451
641,0.34001000000000003,6.5967315341609245
641,0.36001,5.3545446723648
641,0.38001,4.3047767606768135
641,0.40001000000000003,3.406177737661046
641,0.42001,2.6286762710952245
641,0.44001,1.9497685769554978
641,0.46001000000000003,1.3522432186524855
641,0.48001,0.8226864622713048
641,0.50001,0.3504767709753465
641,0.52001,0.
641,0.54001,0.
641,0.56001,0.
641,0.5800099999999999,0.
641,0.6000099999999999,0.
641,0.62001,0.
641,0.64001,0.
641,0.66001,0.
641,0.68001,0.
641,0.70001,0.
641,0.7200099999999999,0.
641,0.74001,0.
641,0.76001,0.
641,0.78001,0.
641,0.80001,0.
641,0.82001,0.
641,0.8400099999999999,0.
641,0.8600099999999999,0.
641,0.88001,0.
641,0.90001,0.
641,0.92001,0.
641,0.94001,0.
641,0.9600099999999999,0.
641,0.9800099999999999,0.
661,0.00001,7.5560809172601635
661,0.02001,7.57379902587958
661,0.040010000000000004,7.628376860189766
661,0.06001,7.725366109936636
661,0.08001,7.875978058784831
661,0.10001,8.100130166651242
661,0.12000999999999999,8.433499583111539
661,0.14001000000000002,8.945816924023076
661,0.16001,9.800682378599204
661,0.18001,11.576312082595193
661,0.20001000000000002,20.
661,0.22001,20.
661,0.24001,17.522228441498754
661,0.26001,13.84280102982118
661,0.28001000000000004,11.105498836973702
661,0.30001,8.980637658255805
661,0.32001,7.279502078828904
661,0.34001000000000003,5.885335813680175
661,0.36001,4.721543874241953
661,0.38001,3.735527192201235
661,0.40001000000000003,2.8898202452662125
661,0.42001,2.1569253019938315
661,0.44001,1.5161510606942683
661,0.46001000000000003,0.9515969255850392
661,0.48001,0.4508243935058392
661,0.50001,0.00394926258696308
661,0.52001,0.
661,0.54001,0.
661,0.56001,0.
661,0.5800099999999999,0.
661,0.6000099999999999,0.
661,0.62001,0.
661,0.64001,0.
661,0.66001,0.
661,0.68001,0.
661,0.70001,0.
661,0.7200099999999999,0.
661,0.74001,0.
661,0.76001,0.
661,0.78001,0.
661,0.80001,0.
661,0.82001,0.
661,0.8400099999999999,0.
661,0.8600099999999999,0.
661,0.88001,0.
661,0.90001,0.
661,0.92001,0.
661,0.94001,0.
661,0.9600099999999999,0.
661,0.9800099999999999,0.
681,0.00001,7.556080917445804
681,0.02001,7.5745438276251695
681,0.040010000000000004,7.631527204584004
681,0.06001,7.7332769513787865
681,0.08001,7.892516875776646
681,0.10001,8.132186399174552
681,0.12000999999999999,8.49439698600208
681,0.14001000000000002,9.064974860716523
681,0.16001,10.062067545082735
681,0.18001,12.462025451967225
681,0.20001000000000002,20.
681,0.22001,20.
681,0.24001,15.99593112112211
681,0.26001,12.635912289896968
681,0.28001000000000004,10.110314915309118
681,0.30001,8.135804748310065
681,0.32001,6.546954525842287
681,0.34001000000000003,5.239891799252399
681,0.36001,4.1456919513040065
681,0.38001,3.2165945280538994
681,0.40001000000000003,2.4183314768881705
681,0.42001,1.7255992291512352
681,0.44001,1.1192640608341018
681,0.46001000000000003,0.5845616134636342
681,0.48001,0.1099006232471733
681,0.50001,0.
681,0.52001,0.
681,0.54001,0.
681,0.56001,0.
681,0.5800099999999999,0.
681,0.6000099999999999,0.
681,0.62001,0.
681,0.64001,0.
681,0.66001,0.
681,0.68001,0.
681,0.70001,0.
681,0.7200099999999999,0.
681,0.74001,0.
681,0.76001,0.
681,0.78001,0.
681,0.80001,0.
681,0.82001,0.
681,0.8400099999999999,0.
681,0.8600099999999999,0.
681,0.88001,0.
681,0.90001,0.
681,0.92001,0.
681,0.94001,0.
681,0.9600099999999999,0.
681,0.9800099999999999,0.
701,0.00001,7.556080917636719
701,0.02001,7.57530969273369
701,0.040010000000000004,7.634777567232416
701,0.06001,7.7414930383838145
701,0.08001,7.909862327448298
701,0.10001,8.166262027100545
701,0.12000999999999999,8.560400397847452
701,0.14001000000000002,9.198359663561051
701,0.16001,10.376378514256098
701,0.18001,14.09530173073983
701,0.20001000000000002,20.
701,0.22001,18.941167656984327
701,0.24001,14.64827988616013
701,0.26001,11.558018975293354
701,0.28001000000000004,9.214567805037445
701,0.30001,7.37118610618168
701,0.32001,5.881280563128267
701,0.34001000000000003,4.651591611459426
701,0.36001,3.6196043448369726
701,0.38001,2.7416512571568776
701,0.40001000000000003,1.9861922493535218
701,0.42001,1.3298154231431814
701,0.44001,0.7547372203713587
701,0.46001000000000003,0.24718539149798682
701,0.48001,0.
701,0.50001,0.
701,0.52001,0.
701,0.54001,0.
701,0.56001,0.
701,0.5800099999999999,0.
701,0.6000099999999999,0.
701,0.62001,0.
701,0.64001,0.
701,0.66001,0.
701,0.68001,0.
701,0.70001,0.
701,0.7200099999999999,0.
701,0.74001,0.
701,0.76001,0.
701,0.78001,0.
701,0.80001,0.
701,0.82001,0.
701,0.8400099999999999,0.
701,0.8600099999999999,0.
701,0.88001,0.
701,0.90001,0.
701,0.92001,0.
701,0.94001,0.
701,0.9600099999999999,0.
701,0.9800099999999999,0.
721,0.00001,7.556080917832879
721,0.02001,7.576096782120855
721,0.040010000000000004,7.638129590905579
721,0.06001,7.750023812257448
721,0.08001,7.928054117197883
721,0.10001,8.202505063608381
721,0.12000999999999999,8.632074337834295
721,0.14001000000000002,9.348565557371323
721,0.16001,10.764162590108818
721,0.18001,20.
721,0.20001000000000002,20.
721,0.22001,17.375266707845938
721,0.24001,13.448274448753892
721,0.26001,10.588756220926042
721,0.28001000000000004,8.403671084422403
721,0.30001,6.675680283004703
721,0.32001,5.273646727874392
721,0.34001000000000003,4.113165825762503
721,0.36001,3.137142357618641
721,0.38001,2.30540346073305
721,0.40001000000000003,1.5887631652187624
721,0.42001,0.9654513876352947
721,0.44001,0.4188677679883304
721,0.46001000000000003,0.
721,0.48001,0.
721,0.50001,0.
721,0.52001,0.
721,0.54001,0.
721,0.56001,0.
721,0.5800099999999999,0.
721,0.6000099999999999,0.
721,0.62001,0.
721,0.64001,0.
721,0.66001,0.
721,0.68001,0.
721,0.70001,0.
721,0.7200099999999999,0.
721,0.74001,0.
721,0.76001,0.
721,0.78001,0.
721,0.80001,0.
721,0.82001,0.
721,0.8400099999999999,0.
721,0.8600099999999999,0.
721,0.88001,0.
721,0.90001,0.
721,0.92001,0.
721,0.94001,0.
721,0.9600099999999999,0.
721,0.9800099999999999,0.
741,0.00001,7.556080918034393
741,0.02001,7.576905241210318
741,0.040010000000000004,7.641584893430903
741,0.06001,7.758878960279336
741,0.08001,7.9471342189579115
741,0.10001,8.241077757438276
741,0.12000999999999999,8.710073376807536
741,0.14001000000000002,9.5189369310388
741,0.16001,11.261084746251436
741,0.18001,20.
741,0.20001000000000002,20.
741,0.22001,15.988845749994072
741,0.24001,12.371916921037224
741,0.26001,9.711964764102014
741,0.28001000000000004,7.6658451168694235
741,0.30001,6.040200473916327
741,0.32001,4.716747727037653
741,0.34001000000000003,3.618553679267551
741,0.36001,2.693152949918069
741,0.38001,1.9033850525714777
741,0.40001000000000003,1.2221117250267686
741,0.42001,0.629001994542753
741,0.44001,0.1084966417631114
741,0.46001000000000003,0.
741,0.48001,0.
741,0.50001,0.
741,0.52001,0.
741,0.54001,0.
741,0.56001,0.
741,0.5800099999999999,0.
741,0.6000099999999999,0.
741,0.62001,0.
741,0.64001,0.
741,0.66001,0.
741,0.68001,0.
741,0.70001,0.
741,0.7200099999999999,0.
741,0.74001,0.
741,0.76001,0.
741,0.78001,0.
741,0.80001,0.
741,0.82001,0.
741,0.8400099999999999,0.
741,0.8600099999999999,0.
741,0.88001,0.
741,0.90001,0.
741,0.92001,0.
741,0.94001,0.
741,0.9600099999999999,0.
741,0.9800099999999999,0.
761,0.00001,7.556080918241264
761,0.02001,7.577735202521099
761,0.040010000000000004,7.645145078897044
761,0.06001,7.768068457016651
761,0.08001,7.9671471261911275
761,0.10001,8.282158652193075
761,0.12000999999999999,8.795162942143731
761,0.14001000000000002,9.713893767052182
761,0.16001,11.93867016042048
761,0.18001,20.
761,0.20001000000000002,19.556641167542004
761,0.22001,14.751285852485456
761,0.24001,11.400304483158434
761,0.26001,8.914640102153335
761,0.28001000000000004,6.991458435575116
761,0.30001,5.4572302469779235
761,0.32001,4.204483967399349
761,0.34001000000000003,3.1626584587895317
761,0.36001,2.2832762476919775
761,0.38001,1.5317991007942156
761,0.40001000000000003,0.8828818612599352
761,0.42001,0.31746413235715737
761,0.44001,0.
761,0.46001000000000003,0.
761,0.48001,0.
761,0.50001,0.
761,0.52001,0.
761,0.54001,0.
761,0.56001,0.
761,0.5800099999999999,0.
761,0.6000099999999999,0.
761,0.62001,0.
761,0.64001,0.
761,0.66001,0.
761,0.68001,0.
761,0.70001,0.
761,0.7200099999999999,0.
761,0.74001,0.
761,0.76001,0.
761,0.78001,0.
761,0.80001,0.
761,0.82001,0.
761,0.8400099999999999,0.
761,0.8600099999999999,0.
761,0.88001,0.
761,0.90001,0.
761,0.92001,0.
761,0.94001,0.
761,0.9600099999999999,0.
761,0.9800099999999999,0.
781,0.00001,7.556080918453544
781,0.02001,7.57858678779825
781,0.040010000000000004,7.648811747062425
781,0.06001,7.7776026027596785
781,0.08001,7.988140116759733
781,0.10001,8.325944992777927
781,0.12000999999999999,8.88824642658448
781,0.14001000000000002,9.939457074201439
781,0.16001,12.984421770481323
781,0.18001,20.
781,0.20001000000000002,18.0612421331309
781,0.22001,13.638770892101558
781,0.24001,10.518323426288976
781,0.26001,8.186181794702689
781,0.28001000000000004,6.372549459149866
781,0.30001,4.920488489006397
781,0.32001,3.7317169407837314
781,0.34001000000000003,2.7411564952824854
781,0.36001,1.9037953061215207
781,0.38001,1.187393282605833
781,0.40001000000000003,0.5681891754847013
781,0.42001,0.02824969263494177
781,0.44001,0.
781,0.46001000000000003,0.
781,0.48001,0.
781,0.50001,0.
781,0.52001,0.
781,0.54001,0.
781,0.56001,0.
781,0.5800099999999999,0.
781,0.6000099999999999,0.
781,0.62001,0.
781,0.64001,0.
781,0.66001,0.
781,0.68001,0.
781,0.70001,0.
781,0.7200099999999999,0.
781,0.74001,0.
781,0.76001,0.
781,0.78001,0.
781,0.80001,0.
781,0.82001,0.
781,0.8400099999999999,0.
781,0.8600099999999999,0.
781,0.88001,0.
781,0.90001,0.
781,0.92001,0.
781,0.94001,0.
781,0.9600099999999999,0.
781,0.9800099999999999,0.
801,0.00001,7.556080918671195
801,0.02001,7.579460109777199
801,0.040010000000000004,7.6525865013358905
801,0.06001,7.787492059998665
801,0.08001,8.010163538278041
801,0.10001,8.372655560605907
801,0.12000999999999999,8.990401081006747
801,0.14001000000000002,10.204145520137395
801,0.16001,15.606104530013257
801,0.18001,20.
801,0.20001000000000002,16.7268817279576
801,0.22001,12.63246918689582
801,0.24001,9.71372611724305
801,0.26001,7.51785207848417
801,0.28001000000000004,5.8024723929746775
801,0.30001,4.424681968133212
801,0.32001,3.294083009845854
801,0.34001000000000003,2.350354671372658
801,0.36001,1.5515198138548107
801,0.38001,0.8673659054326792
801,0.40001000000000003,0.2755395027172931
801,0.42001,0.
801,0.44001,0.
801,0.46001000000000003,0.
801,0.48001,0.
801,0.50001,0.
801,0.52001,0.
801,0.54001,0.
801,0.56001,0.
801,0.5800099999999999,0.
801,0.6000099999999999,0.
801,0.62001,0.
801,0.64001,0.
801,0.66001,0.
801,0.68001,0.
801,0.70001,0.
801,0.7200099999999999,0.
801,0.74001,0.
801,0.76001,0.
801,0.78001,0.
801,0.80001,0.
801,0.82001,0.
801,0.8400099999999999,0.
801,0.8600099999999999,0.
801,0.88001,0.
801,0.90001,0.
801,0.92001,0.
801,0.94001,0.
801,0.9600099999999999,0.
801,0.9800099999999999,0.
821,0.00001,7.556080918894302
821,0.02001,7.580355273651799
821,0.040010000000000004,7.656470955586686
821,0.06001,7.797747888694321
821,0.08001,8.033271118744498
821,0.10001,8.422534032940641
821,0.12000999999999999,9.102926372992632
821,0.14001000000000002,10.520616541104443
821,0.16001,20.
821,0.18001,20.
821,0.20001000000000002,15.52762207471793
821,0.22001,11.717269907502748
821,0.24001,8.976470956426079
821,0.26001,6.902375471241603
821,0.28001000000000004,5.275630243480139
821,0.30001,3.9653138420961067
821,0.32001,2.8878504440839357
821,0.34001000000000003,1.9870768890536246
821,0.36001,1.223692967195191
821,0.38001,0.5692876884517623
821,0.40001000000000003,0.0027646928569751367
821,0.42001,0.
821,0.44001,0.
821,0.46001000000000003,0.
821,0.48001,0.
821,0.50001,0.
821,0.52001,0.
821,0.54001,0.
821,0.56001,0.
821,0.5800099999999999,0.
821,0.6000099999999999,0.
821,0.62001,0.
821,0.64001,0.
821,0.66001,0.
821,0.68001,0.
821,0.70001,0.
821,0.7200099999999999,0.
821,0.74001,0.
821,0.76001,0.
821,0.78001,0.
821,0.80001,0.
821,0.82001,0.
821,0.8400099999999999,0.
821,0.8600099999999999,0.
821,0.88001,0.
821,0.90001,0.
821,0.92001,0.
821,0.94001,0.
821,0.9600099999999999,0.
821,0.9800099999999999,0.
841,0.00001,7.556080919122879
841,0.02001,7.581272378302357
841,0.040010000000000004,7.660466740079473
841,0.06001,7.808381580969621
841,0.08001,8.05752030761221
841,0.10001,8.47585302694194
841,0.12000999999999999,9.22741044942376
841,0.14001000000000002,10.90896183541621
841,0.16001,20.
841,0.18001,19.725301481053016
841,0.20001000000000002,14.442983533378495
841,0.22001,10.880891891771833
841,0.24001,8.298235343107036
841,0.26001,6.333638036174919
841,0.28001000000000004,4.787270992029219
841,0.30001,3.538535661159701
841,0.32001,2.5098050815133877
841,0.34001000000000003,1.648575180385498
841,0.36001,0.9179207697115804
841,0.38001,0.29104114669045766
841,0.40001000000000003,0.
841,0.42001,0.
841,0.44001,0.
841,0.46001000000000003,0.
841,0.48001,0.
841,0.50001,0.
841,0.52001,0.
841,0.54001,0.
841,0.56001,0.
841,0.5800099999999999,0.
841,0.6000099999999999,0.
841,0.62001,0.
841,0.64001,0.
841,0.66001,0.
841,0.68001,0.
841,0.70001,0.
841,0.7200099999999999,0.
841,0.74001,0.
841,0.76001,0.
841,0.78001,0.
841,0.80001,0.
841,0.82001,0.
841,0.8400099999999999,0.
841,0.8600099999999999,0.
841,0.88001,0.
841,0.90001,0.
841,0.92001,0.
841,0.94001,0.
841,0.9600099999999999,0.
841,0.9800099999999999,0.
861,0.00001,7.556080919356926
861,0.02001,7.582211517327393
861,0.040010000000000004,7.664575506614858
861,0.06001,7.819405095757369
861,0.08001,8.08297265298815
861,0.10001,8.532918966160807
861,0.12000999999999999,9.365823736752233
861,0.14001000000000002,11.404247959854805
861,0.16001,20.
861,0.18001,18.357868003718046
861,0.20001000000000002,13.456559466510257
861,0.22001,10.113237272931125
861,0.24001,7.672056895710588
861,0.26001,5.806460461161753
861,0.28001000000000004,4.3333309848848245
861,0.30001,3.1410338696177478
861,0.32001,2.157162989265053
861,0.34001000000000003,1.332457410100706
861,0.36001,0.6321121308260408
861,0.38001,0.03077181003295965
861,0.40001000000000003,0.
861,0.42001,0.
861,0.44001,0.
861,0.46001000000000003,0.
861,0.48001,0.
861,0.50001,0.
861,0.52001,0.
861,0.54001,0.
861,0.56001,0.
861,0.5800099999999999,0.
861,0.6000099999999999,0.
861,0.62001,0.
861,0.64001,0.
861,0.66001,0.
861,0.68001,0.
861,0.70001,0.
861,0.7200099999999999,0.
861,0.74001,0.
861,0.76001,0.
861,0.78001,0.
861,0.80001,0.
861,0.82001,0.
861,0.8400099999999999,0.
861,0.8600099999999999,0.
861,0.88001,0.
861,0.90001,0.
861,0.92001,0.
861,0.94001,0.
861,0.9600099999999999,0.
861,0.9800099999999999,0.
881,0.00001,7.556080919596497
881,0.02001,7.583172779914082
881,0.040010000000000004,7.66879893309667
881,0.06001,7.830830893871937
881,0.08001,8.10969422137246
881,0.10001,8.594078001464739
881,0.12000999999999999,9.52065403762228
881,0.14001000000000002,12.077574838433623
881,0.16001,20.
881,0.18001,17.12502635973561
881,0.20001000000000002,12.555033338839593
881,0.22001,9.405918991743064
881,0.24001,7.092059688315795
881,0.26001,5.31642153748894
881,0.28001000000000004,3.910311707024806
881,0.30001,2.7699352600626552
881,0.32001,1.8274990263191608
881,0.34001000000000003,1.036631790818453
881,0.36001,0.3644316604079882
881,0.38001,0.
881,0.40001000000000003,0.
881,0.42001,0.
881,0.44001,0.
881,0.46001000000000003,0.
881,0.48001,0.
881,0.50001,0.
881,0.52001,0.
881,0.54001,0.
881,0.56001,0.
881,0.5800099999999999,0.
881,0.6000099999999999,0.
881,0.62001,0.
881,0.64001,0.
881,0.66001,0.
881,0.68001,0.
881,0.70001,0.
881,0.7200099999999999,0.
881,0.74001,0.
881,0.76001,0.
881,0.78001,0.
881,0.80001,0.
881,0.82001,0.
881,0.8400099999999999,0.
881,0.8600099999999999,0.
881,0.88001,0.
881,0.90001,0.
881,0.92001,0.
881,0.94001,0.
881,0.9600099999999999,0.
881,0.9800099999999999,0.
901,0.00001,7.556080919841581
901,0.02001,7.584156251576836
901,0.040010000000000004,7.673138727608443
901,0.06001,7.842671973923967
901,0.08001,8.137756067273072
901,0.10001,8.659723282659892
901,0.12000999999999999,9.695107829467139
901,0.14001000000000002,13.120483983797955
901,0.16001,20.
901,0.18001,16.0068531203474
901,0.20001000000000002,11.727470207729139
901,0.22001,8.751904602198845
901,0.24001,6.55324581308274
901,0.26001,4.859721282872679
901,0.28001000000000004,3.5151823407263247
901,0.30001,2.422736549773403
901,0.32001,1.5186900691162886
901,0.34001000000000003,0.759260247885193
901,0.36001,0.11326142160663168
901,0.38001,0.
901,0.40001000000000003,0.
901,0.42001,0.
901,0.44001,0.
901,0.46001000000000003,0.
901,0.48001,0.
901,0.50001,0.
901,0.52001,0.
901,0.54001,0.
901,0.56001,0.
901,0.5800099999999999,0.
901,0.6000099999999999,0.
901,0.62001,0.
901,0.64001,0.
901,0.66001,0.
901,0.68001,0.
901,0.70001,0.
901,0.7200099999999999,0.
901,0.74001,0.
901,0.76001,0.
901,0.78001,0.
901,0.80001,0.
901,0.82001,0.
901,0.8400099999999999,0.
901,0.8600099999999999,0.
901,0.88001,0.
901,0.90001,0.
901,0.92001,0.
901,0.94001,0.
901,0.9600099999999999,0.
901,0.9800099999999999,0.
921,0.00001,7.556080920092242
921,0.02001,7.585162014785351
921,0.040010000000000004,7.677596632098487
921,0.06001,7.854941909464477
921,0.08001,8.167234761202344
921,0.10001,8.730303969594106
921,0.12000999999999999,9.893421336836537
921,0.14001000000000002,16.265723271939326
921,0.16001,20.
921,0.18001,14.987296618517968
921,0.20001000000000002,10.964798283591447
921,0.22001,8.145248939316971
921,0.24001,6.05133380584391
921,0.26001,4.433073482488818
921,0.28001000000000004,3.145304129104679
921,0.30001,2.0972450235146214
921,0.32001,1.2288673067124565
921,0.34001000000000003,0.49871925130038275
921,0.36001,0.
921,0.38001,0.
921,0.40001000000000003,0.
921,0.42001,0.
921,0.44001,0.
921,0.46001000000000003,0.
921,0.48001,0.
921,0.50001,0.
921,0.52001,0.
921,0.54001,0.
921,0.56001,0.
921,0.5800099999999999,0.
921,0.6000099999999999,0.
921,0.62001,0.
921,0.64001,0.
921,0.66001,0.
921,0.68001,0.
921,0.70001,0.
921,0.7200099999999999,0.
921,0.74001,0.
921,0.76001,0.
921,0.78001,0.
921,0.80001,0.
921,0.82001,0.
921,0.8400099999999999,0.
921,0.8600099999999999,0.
921,0.88001,0.
921,0.90001,0.
921,0.92001,0.
921,0.94001,0.
921,0.9600099999999999,0.
921,0.9800099999999999,0.
941,0.00001,7.556080920348466
941,0.02001,7.586190149501638
941,0.040010000000000004,7.682174425750332
941,0.06001,7.867654887724662
941,0.08001,8.198212986018737
941,0.10001,8.806336512667851
941,0.12000999999999999,10.121363437003351
941,0.14001000000000002,20.
941,0.16001,19.910795254070443
941,0.18001,14.053266842970432
941,0.20001000000000002,10.25941938934911
941,0.22001,7.5808864732593
941,0.24001,5.582632849321117
941,0.26001,4.033619627005654
941,0.28001000000000004,2.7983649534256267
941,0.30001,1.791530853083734
941,0.32001,0.956380369875051
941,0.34001000000000003,0.2535699625839719
941,0.36001,0.
941,0.38001,0.
941,0.40001000000000003,0.
941,0.42001,0.
941,0.44001,0.
941,0.46001000000000003,0.
941,0.48001,0.
941,0.50001,0.
941,0.52001,0.
941,0.54001,0.
941,0.56001,0.
941,0.5800099999999999,0.
941,0.6000099999999999,0.
941,0.62001,0.
941,0.64001,0.
941,0.66001,0.
941,0.68001,0.
941,0.70001,0.
941,0.7200099999999999,0.
941,0.74001,0.
941,0.76001,0.
941,0.78001,0.
941,0.80001,0.
941,0.82001,0.
941,0.8400099999999999,0.
941,0.8600099999999999,0.
941,0.88001,0.
941,0.90001,0.
941,0.92001,0.
941,0.94001,0.
941,0.9600099999999999,0.
941,0.9800099999999999,0.
961,0.00001,7.556080920610247
961,0.02001,7.587240733640809
961,0.040010000000000004,7.686873928101094
961,0.06001,7.880825750306221
961,0.08001,8.230780213391485
961,0.10001,8.888418931510987
961,0.12000999999999999,10.387095237663646
961,0.14001000000000002,20.
961,0.16001,18.673979459661812
961,0.18001,13.193965956600852
961,0.20001000000000002,9.604916480556536
961,0.22001,7.0544711375216025
961,0.24001,5.143939994244099
961,0.26001,3.6588595162086475
961,0.28001000000000004,2.472331099737454
961,0.30001,1.5038884308741818
961,0.32001,0.6997648099564444
961,0.34001000000000003,0.022532207287903384
961,0.36001,0.
961,0.38001,0.
961,0.40001000000000003,0.
961,0.42001,0.
961,0.44001,0.
961,0.46001000000000003,0.
961,0.48001,0.
961,0.50001,0.
961,0.52001,0.
961,0.54001,0.
961,0.56001,0.
961,0.5800099999999999,0.
961,0.6000099999999999,0.
961,0.62001,0.
961,0.64001,0.
961,0.66001,0.
961,0.68001,0.
961,0.70001,0.
961,0.7200099999999999,0.
961,0.74001,0.
961,0.76001,0.
961,0.78001,0.
961,0.80001,0.
961,0.82001,0.
961,0.8400099999999999,0.
961,0.8600099999999999,0.
961,0.88001,0.
961,0.90001,0.
961,0.92001,0.
961,0.94001,0.
961,0.9600099999999999,0.
961,0.9800099999999999,0.
981,0.00001,7.556080920877647
981,0.02001,7.588313843467756
981,0.040010000000000004,7.691697001926578
981,0.06001,7.894470036178104
981,0.08001,8.265033474409512
981,0.10001,8.977249110234203
981,0.12000999999999999,10.702746812591633
981,0.14001000000000002,20.
981,0.16001,17.54718580216656
981,0.18001,12.40040217623488
981,0.20001000000000002,8.995828378396151
981,0.22001,6.562250006060046
981,0.24001,4.732462034045526
981,0.26001,3.306597466114246
981,0.28001000000000004,2.1654052449146084
981,0.30001,1.2328028375120748
981,0.32001,0.45771590812387924
981,0.34001000000000003,0.
981,0.36001,0.
981,0.38001,0.
981,0.40001000000000003,0.
981,0.42001,0.
981,0.44001,0.
981,0.46001000000000003,0.
981,0.48001,0.
981,0.50001,0.
981,0.52001,0.
981,0.54001,0.
981,0.56001,0.
981,0.5800099999999999,0.
981,0.6000099999999999,0.
981,0.62001,0.
981,0.64001,0.
981,0.66001,0.
981,0.68001,0.
981,0.70001,0.
981,0.7200099999999999,0.
981,0.74001,0.
981,0.76001,0.
981,0.78001,0.
981,0.80001,0.
981,0.82001,0.
981,0.8400099999999999,0.
981,0.8600099999999999,0.
981,0.88001,0.
981,0.90001,0.
981,0.92001,0.
981,0.94001,0.
981,0.9600099999999999,0.
981,0.9800099999999999,0.
