x, y
151.3157894736842, 0.8848837209302326
398.02631578947364, 0.9372093023255814
651.3157894736842, 1.0313953488372094
953.9473684210526, 1.2511627906976743
1503.2894736842104, 1.3453488372093023
2957.236842105263, 2.130232558139535