x, y
0.19949037622995702, 0.9722313917394368
0.599309468521926, 0.9555936998585417
1.0007421543238404, 0.9768852188604362
1.4000970964996104, 0.9733865509674646
1.8004800924656268, 0.9870103319520741
2.2008327979677302, 0.996113346562764
2.598711934082181, 0.9164996326083805
2.9995035096892475, 1.2656870223284131