x, y
0.7525951557093425, 1.066857142857143
1.847750865051903, 1.0462857142857143
2.3460207612456747, 1.0617142857142856
2.597750865051903, 1.1131428571428572
2.79757785467128, 1.108
3.0493079584775087, 1.2005714285714286