x, y
0.20189612530915088, 1.0576271186440678
0.6005770816158286, 1.1457627118644067
0.9992580379225062, 1.076271186440678
1.400494641384996, 0.9915254237288136
1.7991755976916735, 1.047457627118644
2.200412201154163, 1.0864406779661018
2.599093157460841, 1.0661016949152542
3.000329760923331, 1.071186440677966